[comment encoding = UTF-8 /]
[module generate('http://www.obeo.pt/dsl/mindstorms/1.0.0')]


[template public generateMain(aChoreography : Choreography)]
[comment @main/]
[file ('Main.java', false, 'UTF-8')]
public class Main {
	public static void main(String['['/][']'/] args){
		MyRobot myRobot = new MyRobot();
		[generateChoreography(Choreography.allInstances())/]
	}
}
[/file]
[generateRobot(aChoreography)/]
[/template]

[template public generateChoreography(aChoreography : Set(Choreography))]
[for (chor : Choreography | aChoreography)]
[for ( instruction : Instruction | chor.instructions)]
	[if (instruction.oclIsTypeOf(Grab))]
		myRobot.grab();
	[elseif (instruction.oclIsTypeOf(Release))]
		myRobot.release();
	[elseif (instruction.oclIsTypeOf(GoForward))]
		myRobot.goForward([instruction.oclAsType(GoForward).cm/]);
	[elseif (instruction.oclIsTypeOf(Rotate))]
		myRobot.rotate([instruction.oclAsType(Rotate).degrees/]);
	[/if]
[/for]
[/for]
[/template]

[template public generateRobot(aChoreography : Choreography)]
[file ('MyRobot.java', false, 'UTF-8')]
public class MyRobot {

	public MyRobot() {
	}
	
	public void goForward(int length){
		System.out.println("Going forward: " + length + " cm");
	}
	
	public void grab(){
		System.out.println("Grabing!");
	}
	
	public void rotate(int degrees){
		if (degrees > 0){
			System.out.println("Rotating left: " + degrees + " degrees");
		} else {
			System.out.println("Rotating right: " + degrees + " degrees");
		}
	}
	
	public void release(){
		System.out.println("Releasing!");
	}
}
[/file]
[/template]